{
  "requestsFinished": 55,
  "requestsFailed": 0,
  "requestsRetries": 0,
  "requestsFailedPerMinute": 0,
  "requestsFinishedPerMinute": 71,
  "requestMinDurationMillis": 1464,
  "requestMaxDurationMillis": 5397,
  "requestTotalFailedDurationMillis": 0,
  "requestTotalFinishedDurationMillis": 167086,
  "crawlerStartedAt": "2024-05-25T23:46:52.465Z",
  "crawlerFinishedAt": "2024-05-25T23:47:38.807Z",
  "statsPersistedAt": "2024-05-25T23:47:38.807Z",
  "crawlerRuntimeMillis": 46422,
  "crawlerLastStartTimestamp": 1716680812385,
  "requestRetryHistogram": [
    55
  ],
  "statsId": 0,
  "requestAvgFailedDurationMillis": null,
  "requestAvgFinishedDurationMillis": 3038,
  "requestTotalDurationMillis": 167086,
  "requestsTotal": 55,
  "requestsWithStatusCode": {
    "200": 55
  },
  "errors": {},
  "retryErrors": {}
}