{
	"title": "Graphics/UI Designer",
	"url": "https://pf.com.pk/job/graphics-ui-designer/",
	"html": "About Us\nCareers\nOpen Positions\nSend Resume\nLife at PF\nExpertise\nBlogs\nGraduate Gateway Program\nApply Now"
}