{
	"title": "Rise of Edge AI | Discover the Perks and Use Cases of Artificial Intelligence",
	"url": "https://pf.com.pk/blogs/rise-of-edge-ai-discover-the-perks-and-use-cases-of-artificial-intelligence/",
	"html": "About Us\nCareers\nOpen Positions\nSend Resume\nLife at PF\nExpertise\nBlogs\nGraduate Gateway Program\nApply Now"
}