{
	"title": "Quantum Computing | Latest Breakthroughs and Its Impact in Modern Technologies",
	"url": "https://pf.com.pk/blogs/quantum-computing-latest-breakthroughs-and-its-impact-in-modern-technologies/",
	"html": "About Us\nCareers\nOpen Positions\nSend Resume\nLife at PF\nExpertise\nBlogs\nGraduate Gateway Program\nApply Now"
}