{
	"title": "Product Design",
	"url": "https://pf.com.pk/job/product-design/",
	"html": "About Us\nCareers\nOpen Positions\nSend Resume\nLife at PF\nExpertise\nBlogs\nGraduate Gateway Program\nApply Now"
}