{
	"title": "Senior Python Developer",
	"url": "https://pf.com.pk/job/senior-python-developer/",
	"html": "About Us\nCareers\nOpen Positions\nSend Resume\nLife at PF\nExpertise\nBlogs\nGraduate Gateway Program\nApply Now"
}