{
	"title": "Software Quality Assurance",
	"url": "https://pf.com.pk/job/software-quality-assurance/",
	"html": "About Us\nCareers\nOpen Positions\nSend Resume\nLife at PF\nExpertise\nBlogs\nGraduate Gateway Program\nApply Now"
}