{
	"title": "Quick Insights into the Roles and Careers of Software Engineer",
	"url": "https://pf.com.pk/blogs/quick-insights-into-the-roles-and-careers-of-software-engineer/",
	"html": "About Us\nCareers\nOpen Positions\nSend Resume\nLife at PF\nExpertise\nBlogs\nGraduate Gateway Program\nApply Now"
}