{
	"title": "Privacy Policy",
	"url": "https://pf.com.pk/privacypolicy/",
	"html": "About Us\nCareers\nOpen Positions\nSend Resume\nLife at PF\nExpertise\nBlogs\nGraduate Gateway Program\nApply Now"
}