{
	"title": "Work at PF | Apply Now",
	"url": "https://pf.com.pk/apply-now/",
	"html": "About Us\nCareers\nOpen Positions\nSend Resume\nLife at PF\nExpertise\nBlogs\nGraduate Gateway Program\nApply Now"
}