{
	"title": "Business Development Associate",
	"url": "https://pf.com.pk/job/business-development-associate/",
	"html": "About Us\nCareers\nOpen Positions\nSend Resume\nLife at PF\nExpertise\nBlogs\nGraduate Gateway Program\nApply Now"
}