{
	"title": "Senior & Mid Level Full Stack Developer",
	"url": "https://pf.com.pk/job/senior-and-mid-level-full-stack-developer/",
	"html": "About Us\nCareers\nOpen Positions\nSend Resume\nLife at PF\nExpertise\nBlogs\nGraduate Gateway Program\nApply Now"
}