{
	"title": "Social Impact of FinTech Solution in Pakistan",
	"url": "https://pf.com.pk/blogs/social-impact-of-fintech-solution-in-pakistan/",
	"html": "About Us\nCareers\nOpen Positions\nSend Resume\nLife at PF\nExpertise\nBlogs\nGraduate Gateway Program\nApply Now"
}