{
	"title": "Lead Generation Executive| Programmers Force",
	"url": "https://pf.com.pk/job/lead-generation-executive/",
	"html": "About Us\nCareers\nOpen Positions\nSend Resume\nLife at PF\nExpertise\nBlogs\nGraduate Gateway Program\nApply Now"
}