{
	"title": "Information Security Engineering - Programmer Force",
	"url": "https://pf.com.pk/job/information-security-engineering/",
	"html": "About Us\nCareers\nOpen Positions\nSend Resume\nLife at PF\nExpertise\nBlogs\nGraduate Gateway Program\nApply Now"
}