{
	"title": "Research Assistant",
	"url": "https://pf.com.pk/job/research-assistant/",
	"html": "About Us\nCareers\nOpen Positions\nSend Resume\nLife at PF\nExpertise\nBlogs\nGraduate Gateway Program\nApply Now"
}