{
	"title": "Trainee Data Scientist",
	"url": "https://pf.com.pk/job/trainee-data-scientist/",
	"html": "About Us\nCareers\nOpen Positions\nSend Resume\nLife at PF\nExpertise\nBlogs\nGraduate Gateway Program\nApply Now"
}