{
	"id": "13xUzjsO0y8OaDt",
	"json": "{\"id\":\"13xUzjsO0y8OaDt\",\"url\":\"https://pf.com.pk/job/legal-associate/\",\"loadedUrl\":\"https://pf.com.pk/job/legal-associate/\",\"uniqueKey\":\"https://pf.com.pk/job/legal-associate\",\"method\":\"GET\",\"noRetry\":false,\"retryCount\":0,\"errorMessages\":[],\"headers\":{},\"userData\":{\"__crawlee\":{\"skipNavigation\":false,\"state\":4}},\"handledAt\":\"2024-05-25T23:47:20.484Z\"}",
	"method": "GET",
	"orderNo": null,
	"retryCount": 0,
	"uniqueKey": "https://pf.com.pk/job/legal-associate",
	"url": "https://pf.com.pk/job/legal-associate/"
}