{
	"id": "1RZbo1SWZChhpRq",
	"json": "{\"id\":\"1RZbo1SWZChhpRq\",\"url\":\"https://pf.com.pk/blogs/how-ai-based-solutions-boost-customer-experience-in-businesses/\",\"uniqueKey\":\"https://pf.com.pk/blogs/how-ai-based-solutions-boost-customer-experience-in-businesses\",\"method\":\"GET\",\"noRetry\":false,\"retryCount\":0,\"errorMessages\":[],\"headers\":{},\"userData\":{\"__crawlee\":{\"skipNavigation\":false}}}",
	"method": "GET",
	"orderNo": 1716680826905,
	"retryCount": 0,
	"uniqueKey": "https://pf.com.pk/blogs/how-ai-based-solutions-boost-customer-experience-in-businesses",
	"url": "https://pf.com.pk/blogs/how-ai-based-solutions-boost-customer-experience-in-businesses/"
}