{
	"id": "4tp7sRz8dpe5knl",
	"json": "{\"id\":\"4tp7sRz8dpe5knl\",\"url\":\"https://pf.com.pk/blogs/a-complete-full-stack-web-application-development-roadmap-for-2023/\",\"uniqueKey\":\"https://pf.com.pk/blogs/a-complete-full-stack-web-application-development-roadmap-for-2023\",\"method\":\"GET\",\"noRetry\":false,\"retryCount\":0,\"errorMessages\":[],\"headers\":{},\"userData\":{\"__crawlee\":{\"skipNavigation\":false}}}",
	"method": "GET",
	"orderNo": 1716680826907,
	"retryCount": 0,
	"uniqueKey": "https://pf.com.pk/blogs/a-complete-full-stack-web-application-development-roadmap-for-2023",
	"url": "https://pf.com.pk/blogs/a-complete-full-stack-web-application-development-roadmap-for-2023/"
}