{
	"id": "8GJsEgIMlBzd6Rf",
	"json": "{\"id\":\"8GJsEgIMlBzd6Rf\",\"url\":\"https://pf.com.pk/blogs/the-ultimate-guide-to-hybrid-app-development/\",\"uniqueKey\":\"https://pf.com.pk/blogs/the-ultimate-guide-to-hybrid-app-development\",\"method\":\"GET\",\"noRetry\":false,\"retryCount\":0,\"errorMessages\":[],\"headers\":{},\"userData\":{\"__crawlee\":{\"skipNavigation\":false}}}",
	"method": "GET",
	"orderNo": 1716680827004,
	"retryCount": 0,
	"uniqueKey": "https://pf.com.pk/blogs/the-ultimate-guide-to-hybrid-app-development",
	"url": "https://pf.com.pk/blogs/the-ultimate-guide-to-hybrid-app-development/"
}