{
	"id": "czSLQQsMRiGY135",
	"json": "{\"id\":\"czSLQQsMRiGY135\",\"url\":\"https://pf.com.pk/blogs/digital-darwinism-top-5-disruptive-innovations-reshaping-industries/\",\"uniqueKey\":\"https://pf.com.pk/blogs/digital-darwinism-top-5-disruptive-innovations-reshaping-industries\",\"method\":\"GET\",\"noRetry\":false,\"retryCount\":0,\"errorMessages\":[],\"headers\":{},\"userData\":{\"__crawlee\":{\"skipNavigation\":false}}}",
	"method": "GET",
	"orderNo": 1716680827115,
	"retryCount": 0,
	"uniqueKey": "https://pf.com.pk/blogs/digital-darwinism-top-5-disruptive-innovations-reshaping-industries",
	"url": "https://pf.com.pk/blogs/digital-darwinism-top-5-disruptive-innovations-reshaping-industries/"
}