{
	"id": "dloyRU44NkSuu5F",
	"json": "{\"id\":\"dloyRU44NkSuu5F\",\"url\":\"https://pf.com.pk/job/associate-product-manager/\",\"loadedUrl\":\"https://pf.com.pk/job/associate-product-manager/\",\"uniqueKey\":\"https://pf.com.pk/job/associate-product-manager\",\"method\":\"GET\",\"noRetry\":false,\"retryCount\":0,\"errorMessages\":[],\"headers\":{},\"userData\":{\"__crawlee\":{\"skipNavigation\":false,\"state\":4}},\"handledAt\":\"2024-05-25T23:47:27.674Z\"}",
	"method": "GET",
	"orderNo": null,
	"retryCount": 0,
	"uniqueKey": "https://pf.com.pk/job/associate-product-manager",
	"url": "https://pf.com.pk/job/associate-product-manager/"
}