{
	"id": "e3K6ZYWYslsi4mr",
	"json": "{\"id\":\"e3K6ZYWYslsi4mr\",\"url\":\"https://pf.com.pk/job/research-assistant/\",\"loadedUrl\":\"https://pf.com.pk/job/research-assistant/\",\"uniqueKey\":\"https://pf.com.pk/job/research-assistant\",\"method\":\"GET\",\"noRetry\":false,\"retryCount\":0,\"errorMessages\":[],\"headers\":{},\"userData\":{\"__crawlee\":{\"skipNavigation\":false,\"state\":4}},\"handledAt\":\"2024-05-25T23:47:27.755Z\"}",
	"method": "GET",
	"orderNo": null,
	"retryCount": 0,
	"uniqueKey": "https://pf.com.pk/job/research-assistant",
	"url": "https://pf.com.pk/job/research-assistant/"
}