{
	"id": "G5tF0V45WgQEjvl",
	"json": "{\"id\":\"G5tF0V45WgQEjvl\",\"url\":\"https://pf.com.pk/blogs/ai-career-paths-and-future-market-trends-in-ai/\",\"loadedUrl\":\"https://pf.com.pk/blogs/ai-career-paths-and-future-market-trends-in-ai/\",\"uniqueKey\":\"https://pf.com.pk/blogs/ai-career-paths-and-future-market-trends-in-ai\",\"method\":\"GET\",\"noRetry\":false,\"retryCount\":0,\"errorMessages\":[],\"headers\":{},\"userData\":{\"__crawlee\":{\"skipNavigation\":false,\"state\":4}},\"handledAt\":\"2024-05-25T23:47:12.933Z\"}",
	"method": "GET",
	"orderNo": null,
	"retryCount": 0,
	"uniqueKey": "https://pf.com.pk/blogs/ai-career-paths-and-future-market-trends-in-ai",
	"url": "https://pf.com.pk/blogs/ai-career-paths-and-future-market-trends-in-ai/"
}