{
	"id": "g6RhVjNaAkAwe36",
	"json": "{\"id\":\"g6RhVjNaAkAwe36\",\"url\":\"https://pf.com.pk/job/mobile-app-development/\",\"loadedUrl\":\"https://pf.com.pk/job/mobile-app-development/\",\"uniqueKey\":\"https://pf.com.pk/job/mobile-app-development\",\"method\":\"GET\",\"noRetry\":false,\"retryCount\":0,\"errorMessages\":[],\"headers\":{},\"userData\":{\"__crawlee\":{\"skipNavigation\":false,\"state\":4}},\"handledAt\":\"2024-05-25T23:47:37.957Z\"}",
	"method": "GET",
	"orderNo": null,
	"retryCount": 0,
	"uniqueKey": "https://pf.com.pk/job/mobile-app-development",
	"url": "https://pf.com.pk/job/mobile-app-development/"
}