{
	"id": "GqOnzuxZkf3AWx3",
	"json": "{\"id\":\"GqOnzuxZkf3AWx3\",\"url\":\"https://pf.com.pk/blogs/web3-development-how-to-get-started-with-dapps/\",\"uniqueKey\":\"https://pf.com.pk/blogs/web3-development-how-to-get-started-with-dapps\",\"method\":\"GET\",\"noRetry\":false,\"retryCount\":0,\"errorMessages\":[],\"headers\":{},\"userData\":{\"__crawlee\":{\"skipNavigation\":false}}}",
	"method": "GET",
	"orderNo": 1716680826908,
	"retryCount": 0,
	"uniqueKey": "https://pf.com.pk/blogs/web3-development-how-to-get-started-with-dapps",
	"url": "https://pf.com.pk/blogs/web3-development-how-to-get-started-with-dapps/"
}