{
	"id": "HhmkG9zOtycumkF",
	"json": "{\"id\":\"HhmkG9zOtycumkF\",\"url\":\"https://pf.com.pk/covid-policy/\",\"loadedUrl\":\"https://pf.com.pk/privacypolicy/\",\"uniqueKey\":\"https://pf.com.pk/covid-policy\",\"method\":\"GET\",\"noRetry\":false,\"retryCount\":0,\"errorMessages\":[],\"headers\":{},\"userData\":{\"__crawlee\":{\"skipNavigation\":false,\"state\":4}},\"handledAt\":\"2024-05-25T23:46:58.936Z\"}",
	"method": "GET",
	"orderNo": null,
	"retryCount": 0,
	"uniqueKey": "https://pf.com.pk/covid-policy",
	"url": "https://pf.com.pk/covid-policy/"
}