{
	"id": "htylNxTw2KTf8qU",
	"json": "{\"id\":\"htylNxTw2KTf8qU\",\"url\":\"https://pf.com.pk/blogs/is-artificial-intelligence-the-future-of-mobile-app-development/\",\"uniqueKey\":\"https://pf.com.pk/blogs/is-artificial-intelligence-the-future-of-mobile-app-development\",\"method\":\"GET\",\"noRetry\":false,\"retryCount\":0,\"errorMessages\":[],\"headers\":{},\"userData\":{\"__crawlee\":{\"skipNavigation\":false}}}",
	"method": "GET",
	"orderNo": 1716680826883,
	"retryCount": 0,
	"uniqueKey": "https://pf.com.pk/blogs/is-artificial-intelligence-the-future-of-mobile-app-development",
	"url": "https://pf.com.pk/blogs/is-artificial-intelligence-the-future-of-mobile-app-development/"
}