{
	"id": "irQM7lrZsBLyxs2",
	"json": "{\"id\":\"irQM7lrZsBLyxs2\",\"url\":\"https://pf.com.pk/job/product-design/\",\"loadedUrl\":\"https://pf.com.pk/job/product-design/\",\"uniqueKey\":\"https://pf.com.pk/job/product-design\",\"method\":\"GET\",\"noRetry\":false,\"retryCount\":0,\"errorMessages\":[],\"headers\":{},\"userData\":{\"__crawlee\":{\"skipNavigation\":false,\"state\":4}},\"handledAt\":\"2024-05-25T23:47:36.682Z\"}",
	"method": "GET",
	"orderNo": null,
	"retryCount": 0,
	"uniqueKey": "https://pf.com.pk/job/product-design",
	"url": "https://pf.com.pk/job/product-design/"
}