{
	"id": "IZzJmGqxBrCtcGp",
	"json": "{\"id\":\"IZzJmGqxBrCtcGp\",\"url\":\"https://pf.com.pk/job/tech-lead/\",\"loadedUrl\":\"https://pf.com.pk/job/tech-lead/\",\"uniqueKey\":\"https://pf.com.pk/job/tech-lead\",\"method\":\"GET\",\"noRetry\":false,\"retryCount\":0,\"errorMessages\":[],\"headers\":{},\"userData\":{\"__crawlee\":{\"skipNavigation\":false,\"state\":4}},\"handledAt\":\"2024-05-25T23:47:31.510Z\"}",
	"method": "GET",
	"orderNo": null,
	"retryCount": 0,
	"uniqueKey": "https://pf.com.pk/job/tech-lead",
	"url": "https://pf.com.pk/job/tech-lead/"
}