{
	"id": "Jo3WsOpAHhyUNyA",
	"json": "{\"id\":\"Jo3WsOpAHhyUNyA\",\"url\":\"https://pf.com.pk/blogs/why-use-wordpress-why-is-it-better-than-other-cms/\",\"uniqueKey\":\"https://pf.com.pk/blogs/why-use-wordpress-why-is-it-better-than-other-cms\",\"method\":\"GET\",\"noRetry\":false,\"retryCount\":0,\"errorMessages\":[],\"headers\":{},\"userData\":{\"__crawlee\":{\"skipNavigation\":false}}}",
	"method": "GET",
	"orderNo": 1716680827104,
	"retryCount": 0,
	"uniqueKey": "https://pf.com.pk/blogs/why-use-wordpress-why-is-it-better-than-other-cms",
	"url": "https://pf.com.pk/blogs/why-use-wordpress-why-is-it-better-than-other-cms/"
}