{
	"id": "lrBtaz6FaT0k5gS",
	"json": "{\"id\":\"lrBtaz6FaT0k5gS\",\"url\":\"https://pf.com.pk/blogs/rise-of-edge-ai-discover-the-perks-and-use-cases-of-artificial-intelligence/\",\"loadedUrl\":\"https://pf.com.pk/blogs/rise-of-edge-ai-discover-the-perks-and-use-cases-of-artificial-intelligence/\",\"uniqueKey\":\"https://pf.com.pk/blogs/rise-of-edge-ai-discover-the-perks-and-use-cases-of-artificial-intelligence\",\"method\":\"GET\",\"noRetry\":false,\"retryCount\":0,\"errorMessages\":[],\"headers\":{},\"userData\":{\"__crawlee\":{\"skipNavigation\":false,\"state\":4}},\"handledAt\":\"2024-05-25T23:47:15.047Z\"}",
	"method": "GET",
	"orderNo": null,
	"retryCount": 0,
	"uniqueKey": "https://pf.com.pk/blogs/rise-of-edge-ai-discover-the-perks-and-use-cases-of-artificial-intelligence",
	"url": "https://pf.com.pk/blogs/rise-of-edge-ai-discover-the-perks-and-use-cases-of-artificial-intelligence/"
}