{
	"id": "lXckE6PRGD3YN2n",
	"json": "{\"id\":\"lXckE6PRGD3YN2n\",\"url\":\"https://pf.com.pk/blogs/how-the-latest-fintech-trends-are-changing-the-finance-sector/\",\"uniqueKey\":\"https://pf.com.pk/blogs/how-the-latest-fintech-trends-are-changing-the-finance-sector\",\"method\":\"GET\",\"noRetry\":false,\"retryCount\":0,\"errorMessages\":[],\"headers\":{},\"userData\":{\"__crawlee\":{\"skipNavigation\":false}}}",
	"method": "GET",
	"orderNo": 1716680826901,
	"retryCount": 0,
	"uniqueKey": "https://pf.com.pk/blogs/how-the-latest-fintech-trends-are-changing-the-finance-sector",
	"url": "https://pf.com.pk/blogs/how-the-latest-fintech-trends-are-changing-the-finance-sector/"
}