{
	"id": "ND6Z7ojljDYVJCH",
	"json": "{\"id\":\"ND6Z7ojljDYVJCH\",\"url\":\"https://pf.com.pk/blogs/how-it-software-development-is-changing-in-2023/\",\"uniqueKey\":\"https://pf.com.pk/blogs/how-it-software-development-is-changing-in-2023\",\"method\":\"GET\",\"noRetry\":false,\"retryCount\":0,\"errorMessages\":[],\"headers\":{},\"userData\":{\"__crawlee\":{\"skipNavigation\":false}}}",
	"method": "GET",
	"orderNo": 1716680826917,
	"retryCount": 0,
	"uniqueKey": "https://pf.com.pk/blogs/how-it-software-development-is-changing-in-2023",
	"url": "https://pf.com.pk/blogs/how-it-software-development-is-changing-in-2023/"
}