{
	"id": "o0wI5oxmtetTdjl",
	"json": "{\"id\":\"o0wI5oxmtetTdjl\",\"url\":\"https://pf.com.pk/blogs/what-the-future-holds-for-machine-learning/\",\"uniqueKey\":\"https://pf.com.pk/blogs/what-the-future-holds-for-machine-learning\",\"method\":\"GET\",\"noRetry\":false,\"retryCount\":0,\"errorMessages\":[],\"headers\":{},\"userData\":{\"__crawlee\":{\"skipNavigation\":false}}}",
	"method": "GET",
	"orderNo": 1716680827102,
	"retryCount": 0,
	"uniqueKey": "https://pf.com.pk/blogs/what-the-future-holds-for-machine-learning",
	"url": "https://pf.com.pk/blogs/what-the-future-holds-for-machine-learning/"
}