{
	"id": "OtDeQnfLQofimSc",
	"json": "{\"id\":\"OtDeQnfLQofimSc\",\"url\":\"https://pf.com.pk/blogs/7-steps-towards-successful-ai-development/\",\"uniqueKey\":\"https://pf.com.pk/blogs/7-steps-towards-successful-ai-development\",\"method\":\"GET\",\"noRetry\":false,\"retryCount\":0,\"errorMessages\":[],\"headers\":{},\"userData\":{\"__crawlee\":{\"skipNavigation\":false}}}",
	"method": "GET",
	"orderNo": 1716680827011,
	"retryCount": 0,
	"uniqueKey": "https://pf.com.pk/blogs/7-steps-towards-successful-ai-development",
	"url": "https://pf.com.pk/blogs/7-steps-towards-successful-ai-development/"
}