{
	"id": "oYCQirIZWk3BOMr",
	"json": "{\"id\":\"oYCQirIZWk3BOMr\",\"url\":\"https://pf.com.pk/blogs/driving-innovation-with-web3-development-embrace-the-future-today/\",\"uniqueKey\":\"https://pf.com.pk/blogs/driving-innovation-with-web3-development-embrace-the-future-today\",\"method\":\"GET\",\"noRetry\":false,\"retryCount\":0,\"errorMessages\":[],\"headers\":{},\"userData\":{\"__crawlee\":{\"skipNavigation\":false}}}",
	"method": "GET",
	"orderNo": 1716680826872,
	"retryCount": 0,
	"uniqueKey": "https://pf.com.pk/blogs/driving-innovation-with-web3-development-embrace-the-future-today",
	"url": "https://pf.com.pk/blogs/driving-innovation-with-web3-development-embrace-the-future-today/"
}