{
	"id": "QX7zRvNsulzLDdG",
	"json": "{\"id\":\"QX7zRvNsulzLDdG\",\"url\":\"https://pf.com.pk/job/trainee-data-scientist/\",\"loadedUrl\":\"https://pf.com.pk/job/trainee-data-scientist/\",\"uniqueKey\":\"https://pf.com.pk/job/trainee-data-scientist\",\"method\":\"GET\",\"noRetry\":false,\"retryCount\":0,\"errorMessages\":[],\"headers\":{},\"userData\":{\"__crawlee\":{\"skipNavigation\":false,\"state\":4}},\"handledAt\":\"2024-05-25T23:47:17.245Z\"}",
	"method": "GET",
	"orderNo": null,
	"retryCount": 0,
	"uniqueKey": "https://pf.com.pk/job/trainee-data-scientist",
	"url": "https://pf.com.pk/job/trainee-data-scientist/"
}