{
	"id": "R5RvE95opFQ109m",
	"json": "{\"id\":\"R5RvE95opFQ109m\",\"url\":\"https://pf.com.pk/blogs/the-fourth-industrial-revolution-what-it-holds-for-your-business/\",\"uniqueKey\":\"https://pf.com.pk/blogs/the-fourth-industrial-revolution-what-it-holds-for-your-business\",\"method\":\"GET\",\"noRetry\":false,\"retryCount\":0,\"errorMessages\":[],\"headers\":{},\"userData\":{\"__crawlee\":{\"skipNavigation\":false}}}",
	"method": "GET",
	"orderNo": 1716680827114,
	"retryCount": 0,
	"uniqueKey": "https://pf.com.pk/blogs/the-fourth-industrial-revolution-what-it-holds-for-your-business",
	"url": "https://pf.com.pk/blogs/the-fourth-industrial-revolution-what-it-holds-for-your-business/"
}