{
	"id": "Rf3fP0Je0vEiewg",
	"json": "{\"id\":\"Rf3fP0Je0vEiewg\",\"url\":\"https://pf.com.pk/job/trainee-fullstack-developer/\",\"loadedUrl\":\"https://pf.com.pk/job/trainee-fullstack-developer/\",\"uniqueKey\":\"https://pf.com.pk/job/trainee-fullstack-developer\",\"method\":\"GET\",\"noRetry\":false,\"retryCount\":0,\"errorMessages\":[],\"headers\":{},\"userData\":{\"__crawlee\":{\"skipNavigation\":false,\"state\":4}},\"handledAt\":\"2024-05-25T23:47:15.426Z\"}",
	"method": "GET",
	"orderNo": null,
	"retryCount": 0,
	"uniqueKey": "https://pf.com.pk/job/trainee-fullstack-developer",
	"url": "https://pf.com.pk/job/trainee-fullstack-developer/"
}