{
	"id": "rhbTAhMgFuyzd7J",
	"json": "{\"id\":\"rhbTAhMgFuyzd7J\",\"url\":\"https://pf.com.pk/job/product-support-engineer/\",\"loadedUrl\":\"https://pf.com.pk/job/product-support-engineer/\",\"uniqueKey\":\"https://pf.com.pk/job/product-support-engineer\",\"method\":\"GET\",\"noRetry\":false,\"retryCount\":0,\"errorMessages\":[],\"headers\":{},\"userData\":{\"__crawlee\":{\"skipNavigation\":false,\"state\":4}},\"handledAt\":\"2024-05-25T23:47:30.078Z\"}",
	"method": "GET",
	"orderNo": null,
	"retryCount": 0,
	"uniqueKey": "https://pf.com.pk/job/product-support-engineer",
	"url": "https://pf.com.pk/job/product-support-engineer/"
}