{
	"id": "S1kDw9DENiga4Ii",
	"json": "{\"id\":\"S1kDw9DENiga4Ii\",\"url\":\"https://pf.com.pk/blogs/how-pf-is-dealing-with-coronavirus-outbreak/\",\"loadedUrl\":\"https://pf.com.pk/blogs/how-pf-is-dealing-with-coronavirus-outbreak/\",\"uniqueKey\":\"https://pf.com.pk/blogs/how-pf-is-dealing-with-coronavirus-outbreak\",\"method\":\"GET\",\"noRetry\":false,\"retryCount\":0,\"errorMessages\":[],\"headers\":{},\"userData\":{\"__crawlee\":{\"skipNavigation\":false,\"state\":4}},\"handledAt\":\"2024-05-25T23:46:58.669Z\"}",
	"method": "GET",
	"orderNo": null,
	"retryCount": 0,
	"uniqueKey": "https://pf.com.pk/blogs/how-pf-is-dealing-with-coronavirus-outbreak",
	"url": "https://pf.com.pk/blogs/how-pf-is-dealing-with-coronavirus-outbreak/"
}