{
	"id": "veQSJUgfVASIvBF",
	"json": "{\"id\":\"veQSJUgfVASIvBF\",\"url\":\"https://pf.com.pk/blogs/iot-mobile-app-development-a-complete-guide-for-beginners/\",\"uniqueKey\":\"https://pf.com.pk/blogs/iot-mobile-app-development-a-complete-guide-for-beginners\",\"method\":\"GET\",\"noRetry\":false,\"retryCount\":0,\"errorMessages\":[],\"headers\":{},\"userData\":{\"__crawlee\":{\"skipNavigation\":false}}}",
	"method": "GET",
	"orderNo": 1716680826919,
	"retryCount": 0,
	"uniqueKey": "https://pf.com.pk/blogs/iot-mobile-app-development-a-complete-guide-for-beginners",
	"url": "https://pf.com.pk/blogs/iot-mobile-app-development-a-complete-guide-for-beginners/"
}