{
	"id": "VZSNAH9qyK5AIUO",
	"json": "{\"id\":\"VZSNAH9qyK5AIUO\",\"url\":\"https://pf.com.pk/blogs/app-development-an-inclusive-guide-to-recruit-ideal-developers/\",\"uniqueKey\":\"https://pf.com.pk/blogs/app-development-an-inclusive-guide-to-recruit-ideal-developers\",\"method\":\"GET\",\"noRetry\":false,\"retryCount\":0,\"errorMessages\":[],\"headers\":{},\"userData\":{\"__crawlee\":{\"skipNavigation\":false}}}",
	"method": "GET",
	"orderNo": 1716680826868,
	"retryCount": 0,
	"uniqueKey": "https://pf.com.pk/blogs/app-development-an-inclusive-guide-to-recruit-ideal-developers",
	"url": "https://pf.com.pk/blogs/app-development-an-inclusive-guide-to-recruit-ideal-developers/"
}