{
	"id": "WEjhdTnSHAVFnq0",
	"json": "{\"id\":\"WEjhdTnSHAVFnq0\",\"url\":\"https://pf.com.pk/blogs/decode-the-role-a-comprehensive-guide-to-business-analyst-career-path/\",\"uniqueKey\":\"https://pf.com.pk/blogs/decode-the-role-a-comprehensive-guide-to-business-analyst-career-path\",\"method\":\"GET\",\"noRetry\":false,\"retryCount\":0,\"errorMessages\":[],\"headers\":{},\"userData\":{\"__crawlee\":{\"skipNavigation\":false}}}",
	"method": "GET",
	"orderNo": 1716680826866,
	"retryCount": 0,
	"uniqueKey": "https://pf.com.pk/blogs/decode-the-role-a-comprehensive-guide-to-business-analyst-career-path",
	"url": "https://pf.com.pk/blogs/decode-the-role-a-comprehensive-guide-to-business-analyst-career-path/"
}