{
	"id": "YIlkuKxlt5pxzEW",
	"json": "{\"id\":\"YIlkuKxlt5pxzEW\",\"url\":\"https://pf.com.pk/blogs/how-ai-enhances-data-science-solutions-for-businesses/\",\"uniqueKey\":\"https://pf.com.pk/blogs/how-ai-enhances-data-science-solutions-for-businesses\",\"method\":\"GET\",\"noRetry\":false,\"retryCount\":0,\"errorMessages\":[],\"headers\":{},\"userData\":{\"__crawlee\":{\"skipNavigation\":false}}}",
	"method": "GET",
	"orderNo": 1716680826903,
	"retryCount": 0,
	"uniqueKey": "https://pf.com.pk/blogs/how-ai-enhances-data-science-solutions-for-businesses",
	"url": "https://pf.com.pk/blogs/how-ai-enhances-data-science-solutions-for-businesses/"
}