{
	"id": "ytW8iVwKKylaCyI",
	"json": "{\"id\":\"ytW8iVwKKylaCyI\",\"url\":\"https://pf.com.pk/blogs/web3-development-stepping-into-the-future-of-decentralization/\",\"uniqueKey\":\"https://pf.com.pk/blogs/web3-development-stepping-into-the-future-of-decentralization\",\"method\":\"GET\",\"noRetry\":false,\"retryCount\":0,\"errorMessages\":[],\"headers\":{},\"userData\":{\"__crawlee\":{\"skipNavigation\":false}}}",
	"method": "GET",
	"orderNo": 1716680826997,
	"retryCount": 0,
	"uniqueKey": "https://pf.com.pk/blogs/web3-development-stepping-into-the-future-of-decentralization",
	"url": "https://pf.com.pk/blogs/web3-development-stepping-into-the-future-of-decentralization/"
}