{
	"id": "Z8RshJVP1ZIP9FH",
	"json": "{\"id\":\"Z8RshJVP1ZIP9FH\",\"url\":\"https://pf.com.pk/blogs/technology-trends-for-2023-and-beyond/\",\"uniqueKey\":\"https://pf.com.pk/blogs/technology-trends-for-2023-and-beyond\",\"method\":\"GET\",\"noRetry\":false,\"retryCount\":0,\"errorMessages\":[],\"headers\":{},\"userData\":{\"__crawlee\":{\"skipNavigation\":false}}}",
	"method": "GET",
	"orderNo": 1716680827106,
	"retryCount": 0,
	"uniqueKey": "https://pf.com.pk/blogs/technology-trends-for-2023-and-beyond",
	"url": "https://pf.com.pk/blogs/technology-trends-for-2023-and-beyond/"
}